{
	"info": {
		"_postman_id": "03faae23-6ecb-40b4-854a-b7817948f891",
		"name": "วรวิทย์สมัครไม่สำเร็จ",
		"schema": "https://schema.getpostman.com/json/collection/v2.1.0/collection.json"
	},
	"item": [
		{
			"name": "วรวิทย์สมัครงาน ไม่สำเร็จ อายุก่อนกำหนด",
			"event": [
				{
					"listen": "test",
					"script": {
						"exec": [
							"pm.test(\"Status code is 422\", function () {\r",
							"    pm.response.to.have.status(422);\r",
							"});\r",
							"pm.test(\"Age out of range\", function () {\r",
							"    var jsonData = pm.response.json();\r",
							"    pm.expect(jsonData.message).to.eql(\"Age out of range\");\r",
							"});"
						],
						"type": "text/javascript"
					}
				}
			],
			"request": {
				"method": "POST",
				"header": [],
				"body": {
					"mode": "raw",
					"raw": "{\r\n    \"name\": \"Worawit\",\r\n    \"jobPostingId\": 1,\r\n    \"age\": 24,\r\n    \"gender\": 1,\r\n    \"experience\": 2,\r\n    \"detail\": {}\r\n}",
					"options": {
						"raw": {
							"language": "json"
						}
					}
				},
				"url": {
					"raw": "http://localhost:3000/jobPostings/1/apply/",
					"protocol": "http",
					"host": [
						"localhost"
					],
					"port": "3000",
					"path": [
						"jobPostings",
						"1",
						"apply",
						""
					]
				}
			},
			"response": []
		},
		{
			"name": "วรวิทย์สมัครงาน ไม่สำเร็จ เพศไม่ตรงเงื่อนไข",
			"event": [
				{
					"listen": "test",
					"script": {
						"exec": [
							"pm.test(\"Status code is 422\", function () {\r",
							"    pm.response.to.have.status(422);\r",
							"pm.test(\"Gender does not meet the conditions\", function () {\r",
							"    var jsonData = pm.response.json();\r",
							"    pm.expect(jsonData.message).to.eql(\"Gender does not meet the conditions\");\r",
							"});\r",
							"});"
						],
						"type": "text/javascript"
					}
				}
			],
			"request": {
				"method": "POST",
				"header": [],
				"body": {
					"mode": "raw",
					"raw": "{\r\n    \"name\": \"Worawit\",\r\n    \"jobPostingId\": 1,\r\n    \"age\": 28,\r\n    \"gender\": 2,\r\n    \"experience\": 2,\r\n    \"detail\": {}\r\n}",
					"options": {
						"raw": {
							"language": "json"
						}
					}
				},
				"url": {
					"raw": "http://localhost:3000/jobPostings/1/apply/",
					"protocol": "http",
					"host": [
						"localhost"
					],
					"port": "3000",
					"path": [
						"jobPostings",
						"1",
						"apply",
						""
					]
				}
			},
			"response": []
		},
		{
			"name": "วรวิทย์สมัครงานไม่สำเร็จ ประสบการณ์น้อยกว่ากำหนด",
			"event": [
				{
					"listen": "test",
					"script": {
						"exec": [
							"pm.test(\"Status code is 422\", function () {\r",
							"    pm.response.to.have.status(422);\r",
							"pm.test(\"Not enough experience\", function () {\r",
							"    var jsonData = pm.response.json();\r",
							"    pm.expect(jsonData.message).to.eql(\"Not enough experience\");\r",
							"});\r",
							"});"
						],
						"type": "text/javascript"
					}
				}
			],
			"request": {
				"method": "POST",
				"header": [],
				"body": {
					"mode": "raw",
					"raw": "{\r\n    \"name\": \"Worawit\",\r\n    \"jobPostingId\": 1,\r\n    \"age\": 28,\r\n    \"gender\": 2,\r\n    \"experience\": 1,\r\n    \"detail\": {}\r\n}",
					"options": {
						"raw": {
							"language": "json"
						}
					}
				},
				"url": {
					"raw": "http://localhost:3000/jobPostings/1/apply/",
					"protocol": "http",
					"host": [
						"localhost"
					],
					"port": "3000",
					"path": [
						"jobPostings",
						"1",
						"apply",
						""
					]
				}
			},
			"response": []
		}
	]
}